…
## Combine temperature data from all states.

    # https://statisticsglobe.com/merge-csv-files-in-r
    # combine temperature data from all states into a single file
    unlink(c("temp_data/avgtemp_all_states.csv", "temp_data/avg_temp_q_all_states.csv"))
    avg_temp <- list.files(path = "temp_data/",  # Identify all CSV files
                           pattern = "*.csv", full.names = TRUE) %>% 
      lapply(read_csv) %>% bind_rows %>% dplyr::select(-1) %>% dplyr::rename(temp_mean = value.mean, temp_sd = value.sd)

    avg_temp 

    ## # A tibble: 4,277 × 4
    ##    date                temp_mean temp_sd state  
    ##    <dttm>                  <dbl>   <dbl> <chr>  
    ##  1 2015-01-01 00:00:00      6.16   2.13  Alabama
    ##  2 2015-02-01 00:00:00      4.67   2.63  Alabama
    ##  3 2015-03-01 00:00:00     14.0    2.30  Alabama
    ##  4 2015-04-01 00:00:00     18.7    1.78  Alabama
    ##  5 2015-05-01 00:00:00     22.0    1.37  Alabama
    ##  6 2015-06-01 00:00:00     26.1    0.958 Alabama
    ##  7 2015-07-01 00:00:00     27.5    1.04  Alabama
    ##  8 2015-08-01 00:00:00     26.1    1.32  Alabama
    ##  9 2015-09-01 00:00:00     23.5    1.27  Alabama
    ## 10 2015-10-01 00:00:00     18.2    1.58  Alabama
    ## # … with 4,267 more rows
…
## Combine precipitation data from all states.

    # https://statisticsglobe.com/merge-csv-files-in-r
    prcp <- list.files(path = "prcp_data/",  # Identify all CSV files
                           pattern = "*.csv", full.names = TRUE) %>% 
      lapply(read_csv) %>% bind_rows %>% select(-1) %>% dplyr::rename(prcp_mean = value.mean, prcp_sd = value.sd)

    prcp 

    ## # A tibble: 4,152 × 4
    ##    date                prcp_mean prcp_sd state  
    ##    <dttm>                  <dbl>   <dbl> <chr>  
    ##  1 2015-01-01 00:00:00     110.     27.0 Alabama
    ##  2 2015-02-01 00:00:00     102.     25.5 Alabama
    ##  3 2015-03-01 00:00:00     119.     37.2 Alabama
    ##  4 2015-04-01 00:00:00     197.     57.3 Alabama
    ##  5 2015-05-01 00:00:00     107.     41.3 Alabama
    ##  6 2015-06-01 00:00:00      86.0    39.3 Alabama
    ##  7 2015-07-01 00:00:00     129.     41.3 Alabama
    ##  8 2015-08-01 00:00:00     149.     53.5 Alabama
    ##  9 2015-09-01 00:00:00      61.6    54.4 Alabama
    ## 10 2015-10-01 00:00:00      75.5    28.6 Alabama
    ## # … with 4,142 more rows
…
